unite;nomA;rayon
gousse;ail;maraicher
g;beurre;cremerie
;blanc de poireau;maraicher
l;bouillon;epicerie
;carotte(s);maraicher
g;chocolat;
g;chocolat noir râpé;confiserie
;citron;maraicher
g;comte;
boite;concentré de tomates;conserves
ml;crème;cremerie
g;crème fraiche;cremerie
ml;d'eau;
l;d'eau bouillante;
cs;d'eau de fleur d'oranger;confiserie
cl;d'eau de vie;boisson
cs;d'eau tiède;
ombelle(s);de fleurs de sureau;maraicher
;échalotte(s);maraicher
;écrevisses;poissonnerie
g;farine;epicerie
g;foie;boucherie
g;huile;condiment
cs;huile d'olive;condiment
;jaune(s) d'oeuf;cremerie
;jus de citron;maraicher
cs;lait;cremerie
feuilles;laurier;condiment
sachet;levure;epicerie
sachet;levure de boulanger;epicerie
g;miel;confiserie
g;noix;maraicher
;oeuf(s);cremerie
;orange(s);maraicher
;pâte:;
cs;persil;condiment
pincée;poivre;condiment
;poulet;boucherie
morceau;racine de gentiane;condiment
ml;sang;boucherie
morceau;sanglier;boucherie
;sauce caramel:;
pincée;sel;condiment
g;sucre;confiserie
;tranches lard;boucherie
bâton;vanille;condiment
l;vin rosé;boisson
l;vin rouge;boisson
cl;vin blanc;boisson
